{"level":"info","message":"info Sunucu baslatildi.","timestamp":"2017-09-25T06:44:39.318Z"}
{"$__":{"strictMode":true,"getters":{},"_id":{"_bsontype":"ObjectID","id":{"0":89,"1":200,"2":165,"3":216,"4":97,"5":222,"6":57,"7":19,"8":25,"9":152,"10":234,"11":152}},"wasPopulated":false,"activePaths":{"paths":{"tarih":"modify","tip":"modify","aksiyon":"modify","aktorler":"modify","_id":"default"},"states":{"ignore":{},"default":{"_id":true},"init":{},"modify":{"tarih":true,"aktorler":true,"tip":true,"aksiyon":true},"require":{}},"stateNames":["require","modify","init","default","ignore"]},"pathsToScopes":{},"emitter":{"domain":null,"_events":{},"_eventsCount":0,"_maxListeners":0}},"isNew":true,"_doc":{"aktorler":[{"_bsontype":"ObjectID","id":{"0":89,"1":200,"2":165,"3":216,"4":97,"5":222,"6":57,"7":19,"8":25,"9":152,"10":234,"11":151}},{"_bsontype":"ObjectID","id":{"0":89,"1":200,"2":165,"3":216,"4":97,"5":222,"6":57,"7":19,"8":25,"9":152,"10":234,"11":145}}],"_id":{"$ref":"$[\"$__\"][\"_id\"]"},"tarih":"2017-09-25T06:44:40.380Z","tip":0,"aksiyon":0},"level":"info","message":"dblog-info user1 eklendi.","timestamp":"2017-09-25T06:44:40.381Z"}
{"$__":{"strictMode":true,"getters":{},"_id":{"_bsontype":"ObjectID","id":{"0":89,"1":200,"2":165,"3":216,"4":97,"5":222,"6":57,"7":19,"8":25,"9":152,"10":234,"11":155}},"wasPopulated":false,"activePaths":{"paths":{"tarih":"modify","tip":"modify","aksiyon":"modify","aktorler":"modify","_id":"default"},"states":{"ignore":{},"default":{"_id":true},"init":{},"modify":{"tarih":true,"aktorler":true,"tip":true,"aksiyon":true},"require":{}},"stateNames":["require","modify","init","default","ignore"]},"pathsToScopes":{},"emitter":{"domain":null,"_events":{},"_eventsCount":0,"_maxListeners":0}},"isNew":true,"_doc":{"aktorler":[{"_bsontype":"ObjectID","id":{"0":89,"1":200,"2":165,"3":216,"4":97,"5":222,"6":57,"7":19,"8":25,"9":152,"10":234,"11":154}},{"_bsontype":"ObjectID","id":{"0":89,"1":200,"2":165,"3":216,"4":97,"5":222,"6":57,"7":19,"8":25,"9":152,"10":234,"11":145}}],"_id":{"$ref":"$[\"$__\"][\"_id\"]"},"tarih":"2017-09-25T06:44:40.396Z","tip":0,"aksiyon":0},"level":"info","message":"dblog-info user2 eklendi.","timestamp":"2017-09-25T06:44:40.397Z"}
{"$__":{"strictMode":true,"getters":{},"_id":{"_bsontype":"ObjectID","id":{"0":89,"1":200,"2":165,"3":216,"4":97,"5":222,"6":57,"7":19,"8":25,"9":152,"10":234,"11":158}},"wasPopulated":false,"activePaths":{"paths":{"tarih":"modify","tip":"modify","aksiyon":"modify","aktorler":"modify","_id":"default"},"states":{"ignore":{},"default":{"_id":true},"init":{},"modify":{"tarih":true,"aktorler":true,"tip":true,"aksiyon":true},"require":{}},"stateNames":["require","modify","init","default","ignore"]},"pathsToScopes":{},"emitter":{"domain":null,"_events":{},"_eventsCount":0,"_maxListeners":0}},"isNew":true,"_doc":{"aktorler":[{"_bsontype":"ObjectID","id":{"0":89,"1":200,"2":165,"3":216,"4":97,"5":222,"6":57,"7":19,"8":25,"9":152,"10":234,"11":157}},{"_bsontype":"ObjectID","id":{"0":89,"1":200,"2":165,"3":216,"4":97,"5":222,"6":57,"7":19,"8":25,"9":152,"10":234,"11":145}}],"_id":{"$ref":"$[\"$__\"][\"_id\"]"},"tarih":"2017-09-25T06:44:40.416Z","tip":0,"aksiyon":0},"level":"info","message":"dblog-info user3 eklendi.","timestamp":"2017-09-25T06:44:40.416Z"}
{"$__":{"strictMode":true,"getters":{},"_id":{"_bsontype":"ObjectID","id":{"0":89,"1":200,"2":165,"3":216,"4":97,"5":222,"6":57,"7":19,"8":25,"9":152,"10":234,"11":169}},"wasPopulated":false,"activePaths":{"paths":{"tarih":"modify","tip":"modify","aksiyon":"modify","aktorler":"modify","_id":"default"},"states":{"ignore":{},"default":{"_id":true},"init":{},"modify":{"tarih":true,"aktorler":true,"tip":true,"aksiyon":true},"require":{}},"stateNames":["require","modify","init","default","ignore"]},"pathsToScopes":{},"emitter":{"domain":null,"_events":{},"_eventsCount":0,"_maxListeners":0}},"isNew":true,"_doc":{"aktorler":[{"_bsontype":"ObjectID","id":{"0":89,"1":200,"2":165,"3":216,"4":97,"5":222,"6":57,"7":19,"8":25,"9":152,"10":234,"11":168}},{"_bsontype":"ObjectID","id":{"0":89,"1":200,"2":165,"3":216,"4":97,"5":222,"6":57,"7":19,"8":25,"9":152,"10":234,"11":145}}],"_id":{"$ref":"$[\"$__\"][\"_id\"]"},"tarih":"2017-09-25T06:44:40.513Z","tip":0,"aksiyon":0},"level":"info","message":"dblog-info user1 eklendi.","timestamp":"2017-09-25T06:44:40.513Z"}
{"$__":{"strictMode":true,"getters":{},"_id":{"_bsontype":"ObjectID","id":{"0":89,"1":200,"2":165,"3":216,"4":97,"5":222,"6":57,"7":19,"8":25,"9":152,"10":234,"11":172}},"wasPopulated":false,"activePaths":{"paths":{"tarih":"modify","tip":"modify","aksiyon":"modify","aktorler":"modify","_id":"default"},"states":{"ignore":{},"default":{"_id":true},"init":{},"modify":{"tarih":true,"aktorler":true,"tip":true,"aksiyon":true},"require":{}},"stateNames":["require","modify","init","default","ignore"]},"pathsToScopes":{},"emitter":{"domain":null,"_events":{},"_eventsCount":0,"_maxListeners":0}},"isNew":true,"_doc":{"aktorler":[{"_bsontype":"ObjectID","id":{"0":89,"1":200,"2":165,"3":216,"4":97,"5":222,"6":57,"7":19,"8":25,"9":152,"10":234,"11":171}},{"_bsontype":"ObjectID","id":{"0":89,"1":200,"2":165,"3":216,"4":97,"5":222,"6":57,"7":19,"8":25,"9":152,"10":234,"11":145}}],"_id":{"$ref":"$[\"$__\"][\"_id\"]"},"tarih":"2017-09-25T06:44:40.528Z","tip":0,"aksiyon":0},"level":"info","message":"dblog-info user1 eklendi.","timestamp":"2017-09-25T06:44:40.529Z"}
{"$__":{"strictMode":true,"getters":{},"_id":{"_bsontype":"ObjectID","id":{"0":89,"1":200,"2":165,"3":216,"4":97,"5":222,"6":57,"7":19,"8":25,"9":152,"10":234,"11":186}},"wasPopulated":false,"activePaths":{"paths":{"tarih":"modify","tip":"modify","aksiyon":"modify","aktorler":"modify","_id":"default"},"states":{"ignore":{},"default":{"_id":true},"init":{},"modify":{"tarih":true,"aktorler":true,"tip":true,"aksiyon":true},"require":{}},"stateNames":["require","modify","init","default","ignore"]},"pathsToScopes":{},"emitter":{"domain":null,"_events":{},"_eventsCount":0,"_maxListeners":0}},"isNew":true,"_doc":{"aktorler":[{"_bsontype":"ObjectID","id":{"0":89,"1":200,"2":165,"3":216,"4":97,"5":222,"6":57,"7":19,"8":25,"9":152,"10":234,"11":180}},{"_bsontype":"ObjectID","id":{"0":89,"1":200,"2":165,"3":216,"4":97,"5":222,"6":57,"7":19,"8":25,"9":152,"10":234,"11":183}}],"_id":{"$ref":"$[\"$__\"][\"_id\"]"},"tarih":"2017-09-25T06:44:40.603Z","tip":0,"aksiyon":1},"level":"info","message":"dblog-info silinecek silindi","timestamp":"2017-09-25T06:44:40.603Z"}
{"$__":{"strictMode":true,"getters":{},"_id":{"_bsontype":"ObjectID","id":{"0":89,"1":200,"2":165,"3":216,"4":97,"5":222,"6":57,"7":19,"8":25,"9":152,"10":234,"11":193}},"wasPopulated":false,"activePaths":{"paths":{"tarih":"modify","tip":"modify","aksiyon":"modify","aktorler":"modify","_id":"default"},"states":{"ignore":{},"default":{"_id":true},"init":{},"modify":{"tarih":true,"aktorler":true,"tip":true,"aksiyon":true},"require":{}},"stateNames":["require","modify","init","default","ignore"]},"pathsToScopes":{},"emitter":{"domain":null,"_events":{},"_eventsCount":0,"_maxListeners":0}},"isNew":true,"_doc":{"aktorler":[{"_bsontype":"ObjectID","id":{"0":89,"1":200,"2":165,"3":216,"4":97,"5":222,"6":57,"7":19,"8":25,"9":152,"10":234,"11":187}},{"_bsontype":"ObjectID","id":{"0":89,"1":200,"2":165,"3":216,"4":97,"5":222,"6":57,"7":19,"8":25,"9":152,"10":234,"11":190}}],"_id":{"$ref":"$[\"$__\"][\"_id\"]"},"tarih":"2017-09-25T06:44:40.617Z","tip":0,"aksiyon":1},"level":"info","message":"dblog-info silinecek silindi","timestamp":"2017-09-25T06:44:40.617Z"}
{"$__":{"strictMode":true,"getters":{},"_id":{"_bsontype":"ObjectID","id":{"0":89,"1":200,"2":165,"3":216,"4":97,"5":222,"6":57,"7":19,"8":25,"9":152,"10":234,"11":200}},"wasPopulated":false,"activePaths":{"paths":{"tarih":"modify","tip":"modify","aksiyon":"modify","aktorler":"modify","_id":"default"},"states":{"ignore":{},"default":{"_id":true},"init":{},"modify":{"tarih":true,"aktorler":true,"tip":true,"aksiyon":true},"require":{}},"stateNames":["require","modify","init","default","ignore"]},"pathsToScopes":{},"emitter":{"domain":null,"_events":{},"_eventsCount":0,"_maxListeners":0}},"isNew":true,"_doc":{"aktorler":[{"_bsontype":"ObjectID","id":{"0":89,"1":200,"2":165,"3":216,"4":97,"5":222,"6":57,"7":19,"8":25,"9":152,"10":234,"11":194}},{"_bsontype":"ObjectID","id":{"0":89,"1":200,"2":165,"3":216,"4":97,"5":222,"6":57,"7":19,"8":25,"9":152,"10":234,"11":197}}],"_id":{"$ref":"$[\"$__\"][\"_id\"]"},"tarih":"2017-09-25T06:44:40.645Z","tip":0,"aksiyon":1},"level":"info","message":"dblog-info silinecek silindi","timestamp":"2017-09-25T06:44:40.645Z"}
{"$__":{"strictMode":true,"getters":{},"_id":{"_bsontype":"ObjectID","id":{"0":89,"1":200,"2":165,"3":216,"4":97,"5":222,"6":57,"7":19,"8":25,"9":152,"10":234,"11":201}},"wasPopulated":false,"activePaths":{"paths":{"tarih":"modify","tip":"modify","aksiyon":"modify","aktorler":"modify","_id":"default"},"states":{"ignore":{},"default":{"_id":true},"init":{},"modify":{"tarih":true,"aktorler":true,"tip":true,"aksiyon":true},"require":{}},"stateNames":["require","modify","init","default","ignore"]},"pathsToScopes":{},"emitter":{"domain":null,"_events":{},"_eventsCount":0,"_maxListeners":0}},"isNew":true,"_doc":{"aktorler":[{"_bsontype":"ObjectID","id":{"0":89,"1":200,"2":165,"3":216,"4":97,"5":222,"6":57,"7":19,"8":25,"9":152,"10":234,"11":194}},{"_bsontype":"ObjectID","id":{"0":89,"1":200,"2":165,"3":216,"4":97,"5":222,"6":57,"7":19,"8":25,"9":152,"10":234,"11":198}}],"_id":{"$ref":"$[\"$__\"][\"_id\"]"},"tarih":"2017-09-25T06:44:40.655Z","tip":0,"aksiyon":1},"level":"info","message":"dblog-info silinecek2 silindi","timestamp":"2017-09-25T06:44:40.655Z"}
{"$__":{"strictMode":true,"getters":{},"_id":{"_bsontype":"ObjectID","id":{"0":89,"1":200,"2":165,"3":216,"4":97,"5":222,"6":57,"7":19,"8":25,"9":152,"10":234,"11":214}},"wasPopulated":false,"activePaths":{"paths":{"tarih":"modify","tip":"modify","aksiyon":"modify","aktorler":"modify","_id":"default"},"states":{"ignore":{},"default":{"_id":true},"init":{},"modify":{"tarih":true,"aktorler":true,"tip":true,"aksiyon":true},"require":{}},"stateNames":["require","modify","init","default","ignore"]},"pathsToScopes":{},"emitter":{"domain":null,"_events":{},"_eventsCount":0,"_maxListeners":0}},"isNew":true,"_doc":{"aktorler":[{"_bsontype":"ObjectID","id":{"0":89,"1":200,"2":165,"3":216,"4":97,"5":222,"6":57,"7":19,"8":25,"9":152,"10":234,"11":208}},{"_bsontype":"ObjectID","id":{"0":89,"1":200,"2":165,"3":216,"4":97,"5":222,"6":57,"7":19,"8":25,"9":152,"10":234,"11":211}}],"_id":{"$ref":"$[\"$__\"][\"_id\"]"},"tarih":"2017-09-25T06:44:40.686Z","tip":0,"aksiyon":1},"level":"info","message":"dblog-info silinecek silindi","timestamp":"2017-09-25T06:44:40.686Z"}
{"level":"info","message":"error Hata Not Found","timestamp":"2017-09-25T06:44:40.905Z"}
{"level":"info","message":"error Hata Not Found","timestamp":"2017-09-25T06:44:40.913Z"}
{"level":"info","message":"info Sunucu baslatildi.","timestamp":"2017-09-25T06:46:39.388Z"}
{"level":"info","message":"error Hata Not Found","timestamp":"2017-09-25T06:46:42.483Z"}
{"level":"info","message":"error Hata Not Found","timestamp":"2017-09-25T06:46:54.081Z"}
{"level":"info","message":"error Hata Not Found","timestamp":"2017-09-25T06:46:55.953Z"}
{"level":"info","message":"info Sunucu baslatildi.","timestamp":"2017-09-25T07:13:50.334Z"}
{"$__":{"strictMode":true,"getters":{},"_id":{"_bsontype":"ObjectID","id":{"0":89,"1":200,"2":172,"3":175,"4":20,"5":56,"6":181,"7":25,"8":50,"9":45,"10":33,"11":231}},"wasPopulated":false,"activePaths":{"paths":{"tarih":"modify","tip":"modify","aksiyon":"modify","aktorler":"modify","_id":"default"},"states":{"ignore":{},"default":{"_id":true},"init":{},"modify":{"tarih":true,"aktorler":true,"tip":true,"aksiyon":true},"require":{}},"stateNames":["require","modify","init","default","ignore"]},"pathsToScopes":{},"emitter":{"domain":null,"_events":{},"_eventsCount":0,"_maxListeners":0}},"isNew":true,"_doc":{"aktorler":[{"_bsontype":"ObjectID","id":{"0":89,"1":200,"2":172,"3":175,"4":20,"5":56,"6":181,"7":25,"8":50,"9":45,"10":33,"11":230}},{"_bsontype":"ObjectID","id":{"0":89,"1":200,"2":172,"3":175,"4":20,"5":56,"6":181,"7":25,"8":50,"9":45,"10":33,"11":224}}],"_id":{"$ref":"$[\"$__\"][\"_id\"]"},"tarih":"2017-09-25T07:13:51.076Z","tip":0,"aksiyon":0},"level":"info","message":"dblog-info user1 eklendi.","timestamp":"2017-09-25T07:13:51.077Z"}
{"$__":{"strictMode":true,"getters":{},"_id":{"_bsontype":"ObjectID","id":{"0":89,"1":200,"2":172,"3":175,"4":20,"5":56,"6":181,"7":25,"8":50,"9":45,"10":33,"11":234}},"wasPopulated":false,"activePaths":{"paths":{"tarih":"modify","tip":"modify","aksiyon":"modify","aktorler":"modify","_id":"default"},"states":{"ignore":{},"default":{"_id":true},"init":{},"modify":{"tarih":true,"aktorler":true,"tip":true,"aksiyon":true},"require":{}},"stateNames":["require","modify","init","default","ignore"]},"pathsToScopes":{},"emitter":{"domain":null,"_events":{},"_eventsCount":0,"_maxListeners":0}},"isNew":true,"_doc":{"aktorler":[{"_bsontype":"ObjectID","id":{"0":89,"1":200,"2":172,"3":175,"4":20,"5":56,"6":181,"7":25,"8":50,"9":45,"10":33,"11":233}},{"_bsontype":"ObjectID","id":{"0":89,"1":200,"2":172,"3":175,"4":20,"5":56,"6":181,"7":25,"8":50,"9":45,"10":33,"11":224}}],"_id":{"$ref":"$[\"$__\"][\"_id\"]"},"tarih":"2017-09-25T07:13:51.090Z","tip":0,"aksiyon":0},"level":"info","message":"dblog-info user2 eklendi.","timestamp":"2017-09-25T07:13:51.091Z"}
{"$__":{"strictMode":true,"getters":{},"_id":{"_bsontype":"ObjectID","id":{"0":89,"1":200,"2":172,"3":175,"4":20,"5":56,"6":181,"7":25,"8":50,"9":45,"10":33,"11":237}},"wasPopulated":false,"activePaths":{"paths":{"tarih":"modify","tip":"modify","aksiyon":"modify","aktorler":"modify","_id":"default"},"states":{"ignore":{},"default":{"_id":true},"init":{},"modify":{"tarih":true,"aktorler":true,"tip":true,"aksiyon":true},"require":{}},"stateNames":["require","modify","init","default","ignore"]},"pathsToScopes":{},"emitter":{"domain":null,"_events":{},"_eventsCount":0,"_maxListeners":0}},"isNew":true,"_doc":{"aktorler":[{"_bsontype":"ObjectID","id":{"0":89,"1":200,"2":172,"3":175,"4":20,"5":56,"6":181,"7":25,"8":50,"9":45,"10":33,"11":236}},{"_bsontype":"ObjectID","id":{"0":89,"1":200,"2":172,"3":175,"4":20,"5":56,"6":181,"7":25,"8":50,"9":45,"10":33,"11":224}}],"_id":{"$ref":"$[\"$__\"][\"_id\"]"},"tarih":"2017-09-25T07:13:51.112Z","tip":0,"aksiyon":0},"level":"info","message":"dblog-info user3 eklendi.","timestamp":"2017-09-25T07:13:51.112Z"}
{"$__":{"strictMode":true,"getters":{},"_id":{"_bsontype":"ObjectID","id":{"0":89,"1":200,"2":172,"3":175,"4":20,"5":56,"6":181,"7":25,"8":50,"9":45,"10":33,"11":248}},"wasPopulated":false,"activePaths":{"paths":{"tarih":"modify","tip":"modify","aksiyon":"modify","aktorler":"modify","_id":"default"},"states":{"ignore":{},"default":{"_id":true},"init":{},"modify":{"tarih":true,"aktorler":true,"tip":true,"aksiyon":true},"require":{}},"stateNames":["require","modify","init","default","ignore"]},"pathsToScopes":{},"emitter":{"domain":null,"_events":{},"_eventsCount":0,"_maxListeners":0}},"isNew":true,"_doc":{"aktorler":[{"_bsontype":"ObjectID","id":{"0":89,"1":200,"2":172,"3":175,"4":20,"5":56,"6":181,"7":25,"8":50,"9":45,"10":33,"11":247}},{"_bsontype":"ObjectID","id":{"0":89,"1":200,"2":172,"3":175,"4":20,"5":56,"6":181,"7":25,"8":50,"9":45,"10":33,"11":224}}],"_id":{"$ref":"$[\"$__\"][\"_id\"]"},"tarih":"2017-09-25T07:13:51.213Z","tip":0,"aksiyon":0},"level":"info","message":"dblog-info user1 eklendi.","timestamp":"2017-09-25T07:13:51.214Z"}
{"$__":{"strictMode":true,"getters":{},"_id":{"_bsontype":"ObjectID","id":{"0":89,"1":200,"2":172,"3":175,"4":20,"5":56,"6":181,"7":25,"8":50,"9":45,"10":33,"11":251}},"wasPopulated":false,"activePaths":{"paths":{"tarih":"modify","tip":"modify","aksiyon":"modify","aktorler":"modify","_id":"default"},"states":{"ignore":{},"default":{"_id":true},"init":{},"modify":{"tarih":true,"aktorler":true,"tip":true,"aksiyon":true},"require":{}},"stateNames":["require","modify","init","default","ignore"]},"pathsToScopes":{},"emitter":{"domain":null,"_events":{},"_eventsCount":0,"_maxListeners":0}},"isNew":true,"_doc":{"aktorler":[{"_bsontype":"ObjectID","id":{"0":89,"1":200,"2":172,"3":175,"4":20,"5":56,"6":181,"7":25,"8":50,"9":45,"10":33,"11":250}},{"_bsontype":"ObjectID","id":{"0":89,"1":200,"2":172,"3":175,"4":20,"5":56,"6":181,"7":25,"8":50,"9":45,"10":33,"11":224}}],"_id":{"$ref":"$[\"$__\"][\"_id\"]"},"tarih":"2017-09-25T07:13:51.233Z","tip":0,"aksiyon":0},"level":"info","message":"dblog-info user1 eklendi.","timestamp":"2017-09-25T07:13:51.233Z"}
{"$__":{"strictMode":true,"getters":{},"_id":{"_bsontype":"ObjectID","id":{"0":89,"1":200,"2":172,"3":175,"4":20,"5":56,"6":181,"7":25,"8":50,"9":45,"10":34,"11":9}},"wasPopulated":false,"activePaths":{"paths":{"tarih":"modify","tip":"modify","aksiyon":"modify","aktorler":"modify","_id":"default"},"states":{"ignore":{},"default":{"_id":true},"init":{},"modify":{"tarih":true,"aktorler":true,"tip":true,"aksiyon":true},"require":{}},"stateNames":["require","modify","init","default","ignore"]},"pathsToScopes":{},"emitter":{"domain":null,"_events":{},"_eventsCount":0,"_maxListeners":0}},"isNew":true,"_doc":{"aktorler":[{"_bsontype":"ObjectID","id":{"0":89,"1":200,"2":172,"3":175,"4":20,"5":56,"6":181,"7":25,"8":50,"9":45,"10":34,"11":3}},{"_bsontype":"ObjectID","id":{"0":89,"1":200,"2":172,"3":175,"4":20,"5":56,"6":181,"7":25,"8":50,"9":45,"10":34,"11":6}}],"_id":{"$ref":"$[\"$__\"][\"_id\"]"},"tarih":"2017-09-25T07:13:51.310Z","tip":0,"aksiyon":1},"level":"info","message":"dblog-info silinecek silindi","timestamp":"2017-09-25T07:13:51.311Z"}
{"$__":{"strictMode":true,"getters":{},"_id":{"_bsontype":"ObjectID","id":{"0":89,"1":200,"2":172,"3":175,"4":20,"5":56,"6":181,"7":25,"8":50,"9":45,"10":34,"11":16}},"wasPopulated":false,"activePaths":{"paths":{"tarih":"modify","tip":"modify","aksiyon":"modify","aktorler":"modify","_id":"default"},"states":{"ignore":{},"default":{"_id":true},"init":{},"modify":{"tarih":true,"aktorler":true,"tip":true,"aksiyon":true},"require":{}},"stateNames":["require","modify","init","default","ignore"]},"pathsToScopes":{},"emitter":{"domain":null,"_events":{},"_eventsCount":0,"_maxListeners":0}},"isNew":true,"_doc":{"aktorler":[{"_bsontype":"ObjectID","id":{"0":89,"1":200,"2":172,"3":175,"4":20,"5":56,"6":181,"7":25,"8":50,"9":45,"10":34,"11":10}},{"_bsontype":"ObjectID","id":{"0":89,"1":200,"2":172,"3":175,"4":20,"5":56,"6":181,"7":25,"8":50,"9":45,"10":34,"11":13}}],"_id":{"$ref":"$[\"$__\"][\"_id\"]"},"tarih":"2017-09-25T07:13:51.331Z","tip":0,"aksiyon":1},"level":"info","message":"dblog-info silinecek silindi","timestamp":"2017-09-25T07:13:51.331Z"}
{"$__":{"strictMode":true,"getters":{},"_id":{"_bsontype":"ObjectID","id":{"0":89,"1":200,"2":172,"3":175,"4":20,"5":56,"6":181,"7":25,"8":50,"9":45,"10":34,"11":23}},"wasPopulated":false,"activePaths":{"paths":{"tarih":"modify","tip":"modify","aksiyon":"modify","aktorler":"modify","_id":"default"},"states":{"ignore":{},"default":{"_id":true},"init":{},"modify":{"tarih":true,"aktorler":true,"tip":true,"aksiyon":true},"require":{}},"stateNames":["require","modify","init","default","ignore"]},"pathsToScopes":{},"emitter":{"domain":null,"_events":{},"_eventsCount":0,"_maxListeners":0}},"isNew":true,"_doc":{"aktorler":[{"_bsontype":"ObjectID","id":{"0":89,"1":200,"2":172,"3":175,"4":20,"5":56,"6":181,"7":25,"8":50,"9":45,"10":34,"11":17}},{"_bsontype":"ObjectID","id":{"0":89,"1":200,"2":172,"3":175,"4":20,"5":56,"6":181,"7":25,"8":50,"9":45,"10":34,"11":20}}],"_id":{"$ref":"$[\"$__\"][\"_id\"]"},"tarih":"2017-09-25T07:13:51.362Z","tip":0,"aksiyon":1},"level":"info","message":"dblog-info silinecek silindi","timestamp":"2017-09-25T07:13:51.362Z"}
{"$__":{"strictMode":true,"getters":{},"_id":{"_bsontype":"ObjectID","id":{"0":89,"1":200,"2":172,"3":175,"4":20,"5":56,"6":181,"7":25,"8":50,"9":45,"10":34,"11":24}},"wasPopulated":false,"activePaths":{"paths":{"tarih":"modify","tip":"modify","aksiyon":"modify","aktorler":"modify","_id":"default"},"states":{"ignore":{},"default":{"_id":true},"init":{},"modify":{"tarih":true,"aktorler":true,"tip":true,"aksiyon":true},"require":{}},"stateNames":["require","modify","init","default","ignore"]},"pathsToScopes":{},"emitter":{"domain":null,"_events":{},"_eventsCount":0,"_maxListeners":0}},"isNew":true,"_doc":{"aktorler":[{"_bsontype":"ObjectID","id":{"0":89,"1":200,"2":172,"3":175,"4":20,"5":56,"6":181,"7":25,"8":50,"9":45,"10":34,"11":17}},{"_bsontype":"ObjectID","id":{"0":89,"1":200,"2":172,"3":175,"4":20,"5":56,"6":181,"7":25,"8":50,"9":45,"10":34,"11":21}}],"_id":{"$ref":"$[\"$__\"][\"_id\"]"},"tarih":"2017-09-25T07:13:51.366Z","tip":0,"aksiyon":1},"level":"info","message":"dblog-info silinecek2 silindi","timestamp":"2017-09-25T07:13:51.366Z"}
{"$__":{"strictMode":true,"getters":{},"_id":{"_bsontype":"ObjectID","id":{"0":89,"1":200,"2":172,"3":175,"4":20,"5":56,"6":181,"7":25,"8":50,"9":45,"10":34,"11":37}},"wasPopulated":false,"activePaths":{"paths":{"tarih":"modify","tip":"modify","aksiyon":"modify","aktorler":"modify","_id":"default"},"states":{"ignore":{},"default":{"_id":true},"init":{},"modify":{"tarih":true,"aktorler":true,"tip":true,"aksiyon":true},"require":{}},"stateNames":["require","modify","init","default","ignore"]},"pathsToScopes":{},"emitter":{"domain":null,"_events":{},"_eventsCount":0,"_maxListeners":0}},"isNew":true,"_doc":{"aktorler":[{"_bsontype":"ObjectID","id":{"0":89,"1":200,"2":172,"3":175,"4":20,"5":56,"6":181,"7":25,"8":50,"9":45,"10":34,"11":31}},{"_bsontype":"ObjectID","id":{"0":89,"1":200,"2":172,"3":175,"4":20,"5":56,"6":181,"7":25,"8":50,"9":45,"10":34,"11":34}}],"_id":{"$ref":"$[\"$__\"][\"_id\"]"},"tarih":"2017-09-25T07:13:51.401Z","tip":0,"aksiyon":1},"level":"info","message":"dblog-info silinecek silindi","timestamp":"2017-09-25T07:13:51.401Z"}
{"level":"info","message":"error Hata Not Found","timestamp":"2017-09-25T07:13:51.628Z"}
{"level":"info","message":"error Hata Not Found","timestamp":"2017-09-25T07:13:51.639Z"}
{"level":"info","message":"error Hata Not Found","timestamp":"2017-09-25T07:13:51.654Z"}
{"level":"info","message":"error Hata Not Found","timestamp":"2017-09-25T07:13:51.669Z"}
